File Name,Cell #,FS,AR,Area
140925_10kPa_02um_sample_01_a,1,0.194569453,3.965374899,1818
140925_10kPa_02um_sample_01_a,2,0.159557979,5.663751427,1805
140925_10kPa_02um_sample_01_a,3,0.159860879,3.356527179,1625
140925_10kPa_02um_sample_01_a,4,0.19669175,3.917948088,1903
140925_10kPa_02um_sample_01_a,5,0.118429889,2.937638591,1946
140925_10kPa_02um_sample_01_b,1,0.249226237,2.640484309,2705
140925_10kPa_02um_sample_01_b,2,0.187245383,5.598718209,1757
140925_10kPa_02um_sample_01_b,3,0.016745567,1.131839423,1195
140925_10kPa_02um_sample_01_b,4,0.067290007,1.334056098,1671
140925_10kPa_02um_sample_01_b,5,0.238506343,5.312184107,1829
140925_10kPa_02um_sample_01_c,1,0.229718109,3.05681612,1669
140925_10kPa_02um_sample_01_c,2,0.024365,1.9526,2359
140925_10kPa_02um_sample_01_c,3,0.043611,1.4156,1150
140925_10kPa_02um_sample_01_c,4,0.35267,1.6647,339
,Average,0.182936506,3.089882563,1587.666667
,Stdev,0.129200711,1.538268206,684.5852411
,,,,
,,,,
140925_10kPa_05um_sample_01_a,1,0.255547623,3.926262608,1920
140925_10kPa_05um_sample_01_a,2,0.224802401,2.934535922,2054
140925_10kPa_05um_sample_01_a,3,0.199783091,4.730071474,1954
140925_10kPa_05um_sample_01_a,4,0.056670528,3.503448135,1769
140925_10kPa_05um_sample_01_a,5,0.199987467,4.741398161,1850
140925_10kPa_05um_sample_01_b,1,0.077146814,6.595695352,2120
140925_10kPa_05um_sample_01_b,2,0.24281533,6.072807665,1907
140925_10kPa_05um_sample_01_b,3,0.14839629,1.971023213,2200
140925_10kPa_05um_sample_01_b,4,0.121254098,7.893899211,1966
140925_10kPa_05um_sample_01_b,5,0.204203531,4.632460503,2260
140925_10kPa_05um_sample_01_c,1,0.337523955,4.699276664,2471
140925_10kPa_05um_sample_01_c,3,0.185843304,2.393219649,1632
140925_10kPa_05um_sample_01_c,4,0.154331855,1.547651015,1797
140925_10kPa_05um_sample_01_c,5,0.225737135,2.221308598,1644
,Average,0.188145959,4.133075584,1967.428571
,Stdev,0.073351442,1.864317207,236.8796235
,,,,
,,,,
140925_10kPa_10um_sample_01_a,1,0.0831,1.2335,987
140925_10kPa_10um_sample_01_a,2,0.012749833,1.171718502,1586
140925_10kPa_10um_sample_01_a,3,0.086244691,1.338935193,1795
140925_10kPa_10um_sample_01_a,4,0.109041051,1.28862786,1844
140925_10kPa_10um_sample_01_a,5,0.123692205,1.406731626,1772
140925_10kPa_10um_sample_01_b,1,0.273261366,2.253052439,1571
140925_10kPa_10um_sample_01_b,2,0.1933266,2.089600037,1627
140925_10kPa_10um_sample_01_b,3,0.1933266,2.089600037,1627
140925_10kPa_10um_sample_01_b,4,0.133370437,2.04980079,3096
140925_10kPa_10um_sample_01_b,5,0.151340044,1.533887961,1009
140925_10kPa_10um_sample_01_c,1,0.016797671,1.138849528,1060
140925_10kPa_10um_sample_01_c,2,0.06293852,1.064083335,1528
140925_10kPa_10um_sample_01_c,3,0.03373941,1.289906711,2026
140925_10kPa_10um_sample_01_c,4,0.206211019,4.447338327,1875
140925_10kPa_10um_sample_01_c,5,0.090250692,1.981173105,2346
,Average,0.117959343,1.758453697,1716.6
,,,,
,,,,
,,,,
140925_10kPa_10x5x5um_sample_01_a,1,0.095448765,1.174252872,1176
140925_10kPa_10x5x5um_sample_01_a,2,0.045463327,1.373431591,1567
140925_10kPa_10x5x5um_sample_01_a,3,0.225583617,2.548992359,1666
140925_10kPa_10x5x5um_sample_01_a,4,0.039180389,1.958144805,1681
140925_10kPa_10x5x5um_sample_01_a,5,0.17077409,3.250638023,1034
140925_10kPa_10x5x5um_sample_01_b,1,0.155111671,1.740740466,1380
140925_10kPa_10x5x5um_sample_01_b,2,0.137845536,1.682774562,2658
140925_10kPa_10x5x5um_sample_01_b,3,0.12962196,1.715195694,1313
140925_10kPa_10x5x5um_sample_01_b,4,0.013666107,1.639087028,1844
140925_10kPa_10x5x5um_sample_01_b,5,0.034761885,1.109108502,1041
140925_10kPa_10x5x5um_sample_01_c,1,0.17491645,3.840513867,2005
140925_10kPa_10x5x5um_sample_01_c,2,0.088384715,2.570821901,1713
140925_10kPa_10x5x5um_sample_01_c,3,0.232553436,1.463398291,1870
140925_10kPa_10x5x5um_sample_01_c,4,0.07021136,1.78388844,1743
140925_10kPa_10x5x5um_sample_01_c,5,0.114860978,1.346674326,2037
,Average,0.115225619,1.946510849,1648.533333
,Stdev,0.06838939,0.781321484,427.6236441
,,,,
,,,,
140925_10kPa_20x5x5um_sample_01_a,1,0.118816465,1.548814616,1470
140925_10kPa_20x5x5um_sample_01_a,2,0.104221562,1.088038782,1064
140925_10kPa_20x5x5um_sample_01_a,3,0.082951324,1.384334582,2056
140925_10kPa_20x5x5um_sample_01_a,4,,1.423403311,1085
140925_10kPa_20x5x5um_sample_01_b,1,0.131648644,1.177414976,1287
140925_10kPa_20x5x5um_sample_01_b,2,0.124107558,1.500137157,1003
140925_10kPa_20x5x5um_sample_01_b,3,0.220945878,2.037359166,1571
140925_10kPa_20x5x5um_sample_01_b,4,0.125897861,1.208749768,1319
140925_10kPa_20x5x5um_sample_01_b,5,0.103426538,1.64343004,1264
140925_10kPa_20x5x5um_sample_01_c,1,,1.49371721,1494
140925_10kPa_20x5x5um_sample_01_c,2,0.090427387,1.738276435,1955
140925_10kPa_20x5x5um_sample_01_c,4,0.178321952,1.802143771,1263
140925_10kPa_20x5x5um_sample_01_c,5,,1.437413613,1495
,Average,0.108134824,1.498710264,1409.692308
,Stdev,0.053000875,0.264820181,318.2591671
,,,,
,,,,
140925_10kPa_40x5x5um_sample_01_a,1,0.175084957,2.405405912,3509
140925_10kPa_40x5x5um_sample_01_a,2,0.201861262,1.71940743,3192
140925_10kPa_40x5x5um_sample_01_a,3,0.107273868,2.423947822,2337
140925_10kPa_40x5x5um_sample_01_a,4,0.188327627,2.477452668,2123
140925_10kPa_40x5x5um_sample_01_b,1,0.210652018,2.248638081,1866
140925_10kPa_40x5x5um_sample_01_b,2,0.173290531,1.626222833,1755
140925_10kPa_40x5x5um_sample_01_b,3,0.132282069,1.316328046,1794
140925_10kPa_40x5x5um_sample_01_b,4,0.088027293,1.542543986,1676
140925_10kPa_40x5x5um_sample_01_b,5,0.063266609,1.119873683,2186
140925_10kPa_40x5x5um_sample_01_c,2,0.25802,2.4632,2459
140925_10kPa_40x5x5um_sample_01_c,4,0.18362,2.4811,1505
140925_10kPa_40x5x5um_sample_01_c,5,0.1381,1.0774,3246
,Average,0.159983853,1.908460038,2304
,Stdev,0.055804709,0.564096408,673.2460039
,,,,
,,,,
140925_10kPa_smooth_sample_01_a,1,0.015417,1.06,1620
140925_10kPa_smooth_sample_01_a,2,0.035162,1.1658,1553
140925_10kPa_smooth_sample_01_a,4,0.041258,1.2129,1988
140925_10kPa_smooth_sample_01_b,1,0.030186,1.3167,3827
140925_10kPa_smooth_sample_01_b,2,0.032547,1.701,3024
140925_10kPa_smooth_sample_01_c,1,0.10266,1.9009,1671
140925_10kPa_smooth_sample_01_c,2,0.094141,1.8094,1823
140925_10kPa_smooth_sample_01_c,3,0.10423,1.0538,1386
140925_10kPa_smooth_sample_01_c,4,0.049103,1.2389,2073
140925_10kPa_smooth_sample_01_c,5,0.046723,1.7477,1341
,Average,0.0551427,1.42071,2030.6
,Stdev,0.032658571,0.330642306,794.2620894
,,,,
,,,,
,,,,
140925_10kPa_sq_05um_sample_01_a,2,0.13225,1.5325,1263
140925_10kPa_sq_05um_sample_01_a,3,0.12373,1.4247,1524
140925_10kPa_sq_05um_sample_01_a,4,0.18856,1.8701,1249
140925_10kPa_sq_05um_sample_01_b,1,0.093453,1.5608,1539
140925_10kPa_sq_05um_sample_01_b,2,0.15605,1.8127,1171
140925_10kPa_sq_05um_sample_01_b,3,0.26096,1.4247,1283
140925_10kPa_sq_05um_sample_01_b,4,0.1053,1.23,1147
140925_10kPa_sq_05um_sample_01_b,5,0.014797,1.2184,1073
140925_10kPa_sq_05um_sample_01_c,1,0.12564,2.0104,1766
140925_10kPa_sq_05um_sample_01_c,2,0.0072075,1.6801,1905
140925_10kPa_sq_05um_sample_01_c,3,0.017628,1.2708,875
140925_10kPa_sq_05um_sample_01_c,4,0.07972,1.5218,1176
,,,,
,Average,0.108774625,1.546416667,1330.916667
,Stdev,0.074691262,0.256398996,297.0838444
,,,,
,,,,
,,,,
140925_35kPa_02um_sample_01_a,,,,
140925_35kPa_02um_sample_01_b,,,,
140925_35kPa_02um_sample_01_c,,,,
,,,,
,,,,
,,,,
,,,,
140925_35kPa_05um_sample_01_a,1,0.19147,2.2794,1662
140925_35kPa_05um_sample_01_a,2,0.22933,1.8093,1562
140925_35kPa_05um_sample_01_a,4,0.61022,6.8919,2292
140925_35kPa_05um_sample_01_a,5,0.066897,1.2334,3071
140925_35kPa_05um_sample_01_b,1,0.081537,1.9031,1948
140925_35kPa_05um_sample_01_b,2,0.1254,1.4135,1632
140925_35kPa_05um_sample_01_b,3,0.25012,5.9165,1732
140925_35kPa_05um_sample_01_b,4,0.30655,8.4717,2662
140925_35kPa_05um_sample_01_b,5,0.15568,4.2067,3079
140925_35kPa_05um_sample_01_c,1,0.061981,4.7882,3151
140925_35kPa_05um_sample_01_c,2,0.1856,4.7967,2173
140925_35kPa_05um_sample_01_c,3,0.079285,4.7927,2122
140925_35kPa_05um_sample_01_c,4,0.14,5.1425,1803
140925_35kPa_05um_sample_01_c,5,0.07802,2.6533,1765
,Average,0.183006429,4.02135,2189.571429
,Stdev,0.144281398,2.211377068,575.8842985
,,,,
,,,,
,,,,
140925_35kPa_10um_sample_01_a,,,,
140925_35kPa_10um_sample_01_b,,,,
140925_35kPa_10um_sample_01_c,,,,
,,,,
,,,,
,,,,
,,,,
140925_35kPa_10x5x5um_sample_01_a,1,0.045091,3.6127,1741
140925_35kPa_10x5x5um_sample_01_a,2,0.083035,3.3341,2566
140925_35kPa_10x5x5um_sample_01_a,3,0.1717,3.5735,3083
140925_35kPa_10x5x5um_sample_01_a,4,0.14518,2.5294,1581
140925_35kPa_10x5x5um_sample_01_a,5,0.0687,1.2761,1431
140925_35kPa_10x5x5um_sample_01_b,1,0.10551,4.8963,3131
140925_35kPa_10x5x5um_sample_01_b,2,0.37719,4.3375,1663
140925_35kPa_10x5x5um_sample_01_b,3,0.18573,3.3838,1857
140925_35kPa_10x5x5um_sample_01_b,5,0.3267,2.686,1198
140925_35kPa_10x5x5um_sample_01_c,1,0.065615,2.5143,2145
140925_35kPa_10x5x5um_sample_01_c,2,0.16632,2.5127,1806
140925_35kPa_10x5x5um_sample_01_c,3,0.082565,1.156,983
140925_35kPa_10x5x5um_sample_01_c,4,0.16326,2.7317,1488
140925_35kPa_10x5x5um_sample_01_c,5,0.044997,1.3327,1667
,Average,0.1380116,2.727986667,1799.066667
,Stdev,0.100741067,1.167584089,697.429819
,,,,
,,,,
,,,,
140925_35kPa_20x5x5um_sample_01_a,1,0.24566,2.5432,2114
140925_35kPa_20x5x5um_sample_01_a,2,0.15689,2.3799,1436
140925_35kPa_20x5x5um_sample_01_a,5,0.087313,2.4387,1292
140925_35kPa_20x5x5um_sample_01_b,1,0.21699,1.2777,2777
140925_35kPa_20x5x5um_sample_01_b,2,0.018084,1.2766,1013
140925_35kPa_20x5x5um_sample_01_b,3,0.033556,1.1592,682
140925_35kPa_20x5x5um_sample_01_b,4,0.31012,1.4864,1511
140925_35kPa_20x5x5um_sample_01_b,5,0.044482,1.1387,713
140925_35kPa_20x5x5um_sample_01_c,1,0.10009,2.2505,2052
140925_35kPa_20x5x5um_sample_01_c,2,0.17243,3.8806,1760
140925_35kPa_20x5x5um_sample_01_c,3,0.1512,4.5491,1141
140925_35kPa_20x5x5um_sample_01_c,4,0.45834,5.5226,2134
140925_35kPa_20x5x5um_sample_01_c,5,0.09425,3.7718,1628
140925_35kPa_20x5x5um_sample_01_d,1,0.18679,3.977,2142
140925_35kPa_20x5x5um_sample_01_d,2,0.11342,3.6459,1957
140925_35kPa_20x5x5um_sample_01_d,3,0.12581,4.2285,2792
140925_35kPa_20x5x5um_sample_01_d,4,0.076197,1.8359,1524
140925_35kPa_20x5x5um_sample_01_d,5,0.11505,3.6459,1957
,Average,0.150370667,2.833788889,1701.388889
,Stdev,0.107503479,1.346907499,607.3113494
,,,,
,,,,
140925_35kPa_40x5x5um_sample_01_a,1,0.075594,1.9888,1285
140925_35kPa_40x5x5um_sample_01_a,2,0.087089,3.1575,2555
140925_35kPa_40x5x5um_sample_01_a,3,0.21868,3.2875,2171
140925_35kPa_40x5x5um_sample_01_a,4,0.30271,3.7374,1376
140925_35kPa_40x5x5um_sample_01_a,5,0.085885,3.5384,4133
140925_35kPa_40x5x5um_sample_01_b,1,0.13505,3.2875,3539
140925_35kPa_40x5x5um_sample_01_b,2,0.12847,2.8919,2931
140925_35kPa_40x5x5um_sample_01_b,3,0.21389,1.8275,3604
140925_35kPa_40x5x5um_sample_01_b,4,0.34519,6.6112,2897
140925_35kPa_40x5x5um_sample_01_b,5,0.19285,3.7984,3882
140925_35kPa_40x5x5um_sample_01_c,1,0.086479,2.7426,2660
140925_35kPa_40x5x5um_sample_01_c,2,0.53095,6.9901,2398
140925_35kPa_40x5x5um_sample_01_c,3,0.11495,3.0766,4052
140925_35kPa_40x5x5um_sample_01_c,5,0.092123,4.621,2022
,Average,0.186422143,3.6826,2821.785714
,Stdev,0.130534509,1.498932699,932.0256829
,,,,
,,,,
140925_35kPa_smooth_sample_01_a,2,0.36111,2.9584,2399
140925_35kPa_smooth_sample_01_a,3,0.12424,1.8986,2874
140925_35kPa_smooth_sample_01_a,4,0.19909,1.5195,1859
140925_35kPa_smooth_sample_01_a,5,0.36335,1.8122,1405
140925_35kPa_smooth_sample_01_b,1,0.35147,1.3458,2013
140925_35kPa_smooth_sample_01_b,2,0.25481,1.4152,2800
140925_35kPa_smooth_sample_01_b,3,0.26859,2.5718,1291
140925_35kPa_smooth_sample_01_b,5,0.24051,1.6491,1278
140925_35kPa_smooth_sample_01_c,2,0.46725,1.6253,1614
140925_35kPa_smooth_sample_01_c,3,0.049365,1.2329,2578
140925_35kPa_smooth_sample_01_c,4,0.091593,1.5783,1251
140925_35kPa_smooth_sample_01_c,5,0.10119,1.4748,2599
,Average,0.273124143,1.830828571,2004.357143
,Stdev,0.153886024,0.582827018,668.3470548
,,,,
,,,,
140925_35kPa_sq_05um_sample_01_a,1,0.08595,1.7431,1360
140925_35kPa_sq_05um_sample_01_a,2,0.20789,2.0733,1233
140925_35kPa_sq_05um_sample_01_a,3,0.89432,1.6604,1083
140925_35kPa_sq_05um_sample_01_a,4,0.093504,1.4277,3464
140925_35kPa_sq_05um_sample_01_a,5,0.37937,2.4002,2742
140925_35kPa_sq_05um_sample_01_b,1,0.17657,3.6143,1355
140925_35kPa_sq_05um_sample_01_b,2,0.10878,1.8146,1428
140925_35kPa_sq_05um_sample_01_b,3,0.037056,2.4171,3404
140925_35kPa_sq_05um_sample_01_b,4,0.036422,1.4059,1981
140925_35kPa_sq_05um_sample_01_b,5,0.86892,2.9594,1091
140925_35kPa_sq_05um_sample_01_c,1,0.082593,1.9266,2166
140925_35kPa_sq_05um_sample_01_c,3,0.14176,2.1551,1257
140925_35kPa_sq_05um_sample_01_c,4,0.22732,2.2974,1687
140925_35kPa_sq_05um_sample_01_c,5,0.13252,1.1412,1211
,Average,0.248069643,2.074021429,1818.714286
,Stdev,0.282628324,0.652852827,828.0513203
