"","modulus","size","FS","FS.sd","n","FS.sem","AR","AR.sd","AR.sem","Area","Area.sd","Area.sem"
"1","10","smooth",0.12542965625,0.123316867747831,32,0.021799548354794,1.7801125,0.579801183805221,0.102495337202165,303.61625,111.711619839917,19.7480109815347
"4","10","05x05",0.18135075,0.0934567249329127,46,0.0137794423399388,2.03171956521739,0.715733565766096,0.105529157022273,228.228152173913,84.366405358865,12.4391478398681
"6","10","10x05",0.161591402263158,0.0860535057086862,38,0.0139597219893473,2.28061744018421,1.10211896540613,0.178787304823347,226.167236842105,87.3311003351022,14.1669752052735
"8","10","20x05",0.191413379225,0.0974814984286044,40,0.0154131782380257,2.894812482325,1.4474430501038,0.228860841085461,232.609125,62.5124319675438,9.88408335468797
"10","10","40x05",0.210787555935484,0.0909544697615391,31,0.0163359050122064,2.895684531,1.10670873379479,0.198770756388883,264.003306451613,78.4752359516127,14.0945684547118
"12","10","infx05",0.216026109272727,0.10149345783799,33,0.0176677432352757,3.835850667,1.50647044231988,0.262242843365588,257.825378787879,75.7380799437309,13.1843074231899
"2","35","smooth",0.164810815789474,0.126091498356455,38,0.0204547420558914,1.75101052631579,0.539171175641798,0.0874651143453565,243.504210526316,123.021142601841,19.9566645820009
"5","35","05x05",0.180178606060606,0.106773217343155,33,0.0185868313939448,2.70459696969697,1.3022591664308,0.226694223139094,281.048409090909,100.726552743869,17.5342421941506
"7","35","10x05",0.192175914285714,0.108593766890882,35,0.0183556968249652,2.75133714285714,1.13097686123044,0.191169981253682,256.76,99.497555133649,16.8181564112577
"9","35","20x05",0.161315477272727,0.0993505307895346,44,0.0149776560614335,3.40006818181818,1.49158444502431,0.224864815785278,231.313409090909,71.7955650232183,10.8235886724354
"11","35","40x05",0.19131025,0.13248697414226,40,0.0209480299296687,3.3266725,1.51066414041037,0.238856973161859,295.0443125,104.629975763168,16.5434517469913
"13","35","infx05",0.127064620689655,0.0604636412703735,29,0.011227816313118,3.22380689655172,1.31038044719055,0.243331540281646,269.309913793103,109.308243099917,20.2980311679785
"3","TCPS","smooth",0.107038777777778,0.116226045819219,18,0.0273947417164228,1.72398333333333,0.349783335038404,0.0824447227172338,296.640555555556,137.031582803756,32.2986538124206
